{
	"type": "Page",
	"label": "Donate - Support our work!",
	"description": "دونیت شمارا در جمع کردن کمک‌های مالی یاری می‌کند.",
	"style": {
		"layout": "column",
		"borderRadius": {
			
		},
		"borderStyleColorWidth": {
			
		},
		"borderStyle": {
			
		},
		"borderWidth": {
			
		},
		"borderColor": {
			"bottom": "none"
		},
		"flexDirection": "wb-flex-column",
		"padding": {
			"isUniform": true,
			"uniform": 11
		},
		"margin": {
			"isUniform": true
		},
		"alignItems": "wb-flex-align-items-stretch",
		"justifyContent": "wb-flex-justify-content-start"
	},
	"contents": [
		{
			"style": {
				"padding": {
					
				},
				"margin": {
					
				},
				"borderRadius": {
					
				},
				"borderStyleColorWidth": {
					
				},
				"borderStyle": {
					
				},
				"borderWidth": {
					
				},
				"borderColor": {
					"bottom": "none"
				},
				"flexDirection": "wb-flex-row",
				"alignItems": "wb-flex-align-items-stretch",
				"justifyContent": "wb-flex-justify-content-space-around",
				"flexAlignItem": "wb-flex-item-auto"
			},
			"type": "Group",
			"name": "Panel",
			"contents": [
				{
					"style": {
						"padding": {
							
						},
						"borderRadius": {
							
						},
						"borderStyleColorWidth": {
							
						},
						"borderStyle": {
							
						},
						"borderWidth": {
							
						},
						"borderColor": {
							"bottom": "none"
						},
						"margin": {
							
						},
						"flexAlignItem": "wb-flex-item-auto"
					},
					"type": "CommonFeatureLinks",
					"name": "Widget",
					"features": [
						{
							"icon": "assignment_turned_in",
							"title": "Weburger",
							"text": "See weburger home",
							"action": {
								"type": "link",
								"link": "https://gitlab.com/groups/weburger",
								"label": "Weburger"
							}
						},
						{
							"icon": "assignment_turned_in",
							"title": "Common widgets",
							"text": "See common widgets",
							"action": {
								"type": "link",
								"link": "https://gitlab.com/weburger/am-wb-common",
								"label": "common"
							}
						},
						{
							"icon": "assignment_turned_in",
							"title": "Feature links help",
							"text": "See online help about feature list.",
							"action": {
								"link": "https://gitlab.com/weburger/am-wb-common/wikis/feature-links",
								"type": "link",
								"label": "Features link"
							}
						},
						{
							"icon": "assignment_turned_in",
							"title": "Action title#1",
							"text": "Feature description."
						},
						{
							"icon": "assignment_turned_in",
							"title": "Action title#2",
							"text": "Feature description."
						},
						{
							"icon": "assignment_turned_in",
							"title": "Action title#3",
							"text": "Feature description."
						}
					]
				},
				{
					"style": {
						"padding": {
							
						},
						"borderRadius": {
							
						},
						"borderStyleColorWidth": {
							
						},
						"borderStyle": {
							
						},
						"borderWidth": {
							
						},
						"borderColor": {
							
						},
						"margin": {
							
						}
					},
					"type": "CommonFeatureMozaic",
					"name": "Widget",
					"features": [
						{
							"icon": "assignment_turned_in",
							"title": "Feature title",
							"text": "Feature description."
						},
						{
							"icon": "assignment_turned_in",
							"title": "Feature title",
							"text": "Feature description."
						},
						{
							"icon": "assignment_turned_in",
							"title": "Feature title",
							"text": "Feature description."
						},
						{
							"icon": "assignment_turned_in",
							"title": "Feature title",
							"text": "Feature description."
						}
					]
				}
			]
		}
	]
}